1000215215
376635392
527216196

17:50:49 : Block start at 240680960 (123 Gb)  = 734 ms
17:50:51 : Block start at 240713728 (123 Gb)  = 969 ms
17:50:51 : Block start at 240730112 (123 Gb)  = 688 ms
17:50:52 : Block start at 240746496 (123 Gb)  = 953 ms
17:50:53 : Block start at 240762880 (123 Gb)  = 969 ms
17:50:54 : Block start at 240779264 (123 Gb)  = 1203 ms
17:50:55 : Block start at 240795648 (123 Gb)  = 719 ms
17:50:56 : Block start at 240812032 (123 Gb)  = 766 ms
17:50:58 : Block start at 240844800 (123 Gb)  = 1266 ms
17:50:59 : Block start at 240943104 (123 Gb)  = 625 ms
17:51:00 : Block start at 240975872 (123 Gb)  = 703 ms
17:51:01 : Block start at 240992256 (123 Gb)  = 750 ms
17:51:04 : Block start at 241221632 (124 Gb)  = 657 ms
17:51:06 : Block start at 241287168 (124 Gb)  = 1266 ms
17:51:07 : Block start at 241336320 (124 Gb)  = 1156 ms
17:51:08 : Block start at 241369088 (124 Gb)  = 562 ms
17:51:09 : Block start at 241401856 (124 Gb)  = 782 ms
17:51:10 : Block start at 241434624 (124 Gb)  = 594 ms
17:51:11 : Block start at 241451008 (124 Gb)  = 797 ms
17:51:13 : Block start at 241516544 (124 Gb)  = 906 ms
17:51:14 : Block start at 241532928 (124 Gb)  = 1094 ms
17:51:15 : Block start at 241549312 (124 Gb)  = 1218 ms
17:51:17 : Block start at 241565696 (124 Gb)  = 1422 ms
17:51:18 : Block start at 241582080 (124 Gb)  = 1313 ms
17:51:19 : Block start at 241598464 (124 Gb)  = 1375 ms
17:51:21 : Block start at 241614848 (124 Gb)  = 1641 ms
17:51:23 : Block start at 241631232 (124 Gb)  = 1500 ms
17:51:24 : Block start at 241647616 (124 Gb)  = 1453 ms
17:51:25 : Block start at 241664000 (124 Gb)  = 1219 ms
17:51:27 : Block start at 241680384 (124 Gb)  = 1437 ms
17:51:28 : Block start at 241696768 (124 Gb)  = 1000 ms
17:51:30 : Block start at 241745920 (124 Gb)  = 1187 ms
17:51:31 : Block start at 241762304 (124 Gb)  = 1516 ms
17:51:33 : Block start at 241778688 (124 Gb)  = 1781 ms
17:51:35 : Block start at 241795072 (124 Gb)  = 1672 ms
17:51:36 : Block start at 241811456 (124 Gb)  = 1437 ms
17:51:38 : Block start at 241827840 (124 Gb)  = 1453 ms
17:51:39 : Block start at 241844224 (124 Gb)  = 1281 ms
17:51:40 : Block start at 241860608 (124 Gb)  = 875 ms
17:51:41 : Block start at 241876992 (124 Gb)  = 1078 ms
17:51:42 : Block start at 241893376 (124 Gb)  = 1000 ms
17:51:43 : Block start at 241909760 (124 Gb)  = 937 ms
17:51:44 : Block start at 241926144 (124 Gb)  = 1000 ms
17:51:45 : Block start at 241942528 (124 Gb)  = 1141 ms
17:51:46 : Block start at 241958912 (124 Gb)  = 1235 ms
17:51:48 : Block start at 241975296 (124 Gb)  = 1625 ms
17:51:49 : Block start at 241991680 (124 Gb)  = 1703 ms
17:51:51 : Block start at 242008064 (124 Gb)  = 1719 ms
17:51:53 : Warning! Block start at 242024448 (124 Gb)  = 2328 ms
17:51:55 : Block start at 242040832 (124 Gb)  = 1656 ms
17:51:57 : Block start at 242057216 (124 Gb)  = 1672 ms
17:51:59 : Block start at 242073600 (124 Gb)  = 2000 ms
17:52:01 : Block start at 242089984 (124 Gb)  = 2157 ms
17:52:03 : Block start at 242106368 (124 Gb)  = 1969 ms
17:52:05 : Block start at 242122752 (124 Gb)  = 2172 ms
17:52:07 : Block start at 242139136 (124 Gb)  = 2188 ms
17:52:10 : Block start at 242155520 (124 Gb)  = 2171 ms
17:52:12 : Block start at 242171904 (124 Gb)  = 2094 ms
17:52:14 : Block start at 242188288 (124 Gb)  = 1922 ms
17:52:15 : Block start at 242204672 (124 Gb)  = 1125 ms
17:52:16 : Block start at 242221056 (124 Gb)  = 1078 ms
17:52:17 : Block start at 242237440 (124 Gb)  = 875 ms
17:52:23 : Block start at 244170752 (125 Gb)  = 797 ms
17:52:25 : Block start at 244219904 (125 Gb)  = 782 ms
17:52:33 : Block start at 245022720 (125 Gb)  = 594 ms
17:52:35 : Block start at 245055488 (125 Gb)  = 1344 ms
17:52:36 : Block start at 245071872 (125 Gb)  = 1281 ms
17:52:37 : Block start at 245088256 (125 Gb)  = 1031 ms
17:52:38 : Block start at 245104640 (125 Gb)  = 1422 ms
17:52:39 : Block start at 245121024 (126 Gb)  = 843 ms
17:52:40 : Block start at 245137408 (126 Gb)  = 1141 ms
17:52:41 : Block start at 245153792 (126 Gb)  = 1047 ms
17:52:43 : Block start at 245170176 (126 Gb)  = 1312 ms
17:52:44 : Block start at 245186560 (126 Gb)  = 1687 ms
17:52:46 : Block start at 245202944 (126 Gb)  = 1281 ms
17:52:47 : Block start at 245219328 (126 Gb)  = 954 ms
17:52:48 : Block start at 245235712 (126 Gb)  = 1062 ms
17:52:48 : Block start at 245252096 (126 Gb)  = 563 ms
17:52:49 : Block start at 245268480 (126 Gb)  = 921 ms
17:53:01 : Block start at 247169024 (127 Gb)  = 766 ms
17:53:01 : Block start at 247185408 (127 Gb)  = 562 ms
17:53:02 : Block start at 247201792 (127 Gb)  = 953 ms
17:53:03 : Block start at 247218176 (127 Gb)  = 625 ms
17:53:04 : Block start at 247234560 (127 Gb)  = 734 ms
17:53:04 : Block start at 247250944 (127 Gb)  = 704 ms
17:53:06 : Block start at 247267328 (127 Gb)  = 1109 ms
17:53:07 : Block start at 247283712 (127 Gb)  = 1109 ms
17:53:08 : Block start at 247300096 (127 Gb)  = 1203 ms
17:53:09 : Block start at 247316480 (127 Gb)  = 688 ms
17:53:10 : Block start at 247332864 (127 Gb)  = 1594 ms
17:53:11 : Block start at 247349248 (127 Gb)  = 1328 ms
17:53:13 : Block start at 247365632 (127 Gb)  = 1125 ms
17:53:14 : Block start at 247382016 (127 Gb)  = 1250 ms
17:53:15 : Block start at 247398400 (127 Gb)  = 1579 ms
17:53:16 : Block start at 247431168 (127 Gb)  = 579 ms
17:53:18 : Block start at 247463936 (127 Gb)  = 1500 ms
17:53:19 : Block start at 247496704 (127 Gb)  = 797 ms
17:53:20 : Block start at 247513088 (127 Gb)  = 1015 ms
17:53:22 : Block start at 247545856 (127 Gb)  = 859 ms
17:53:22 : Block start at 247562240 (127 Gb)  = 687 ms
17:53:26 : Block start at 248266752 (127 Gb)  = 594 ms
17:53:27 : Block start at 248283136 (127 Gb)  = 625 ms
17:53:28 : Block start at 248315904 (127 Gb)  = 766 ms
17:53:28 : Block start at 248332288 (127 Gb)  = 672 ms
17:53:30 : Block start at 248365056 (127 Gb)  = 766 ms
17:53:31 : Block start at 248414208 (127 Gb)  = 593 ms
17:53:32 : Block start at 248430592 (127 Gb)  = 1188 ms
17:53:33 : Block start at 248446976 (127 Gb)  = 703 ms
17:53:34 : Block start at 248463360 (127 Gb)  = 1093 ms
17:53:35 : Block start at 248479744 (127 Gb)  = 1188 ms
17:53:36 : Block start at 248496128 (127 Gb)  = 1172 ms
17:53:37 : Block start at 248512512 (127 Gb)  = 1343 ms
17:53:39 : Block start at 248528896 (127 Gb)  = 1562 ms
17:53:40 : Block start at 248545280 (127 Gb)  = 1094 ms
17:53:41 : Block start at 248561664 (127 Gb)  = 1062 ms
17:53:43 : Block start at 248627200 (127 Gb)  = 984 ms
17:53:45 : Block start at 248643584 (127 Gb)  = 1844 ms
17:53:46 : Block start at 248659968 (127 Gb)  = 937 ms
17:53:47 : Block start at 248676352 (127 Gb)  = 1328 ms
17:53:48 : Block start at 248692736 (127 Gb)  = 1078 ms
17:53:50 : Block start at 248709120 (127 Gb)  = 1469 ms
17:53:51 : Block start at 248725504 (127 Gb)  = 734 ms
17:53:52 : Block start at 248741888 (127 Gb)  = 1110 ms
17:53:55 : Block start at 248872960 (127 Gb)  = 1109 ms
17:53:56 : Block start at 248889344 (127 Gb)  = 703 ms
17:53:58 : Block start at 249102336 (128 Gb)  = 1157 ms
17:54:00 : Block start at 249462784 (128 Gb)  = 719 ms
17:54:06 : Block start at 250216448 (128 Gb)  = 1672 ms
17:54:19 : Block start at 254574592 (130 Gb)  = 718 ms
17:54:20 : Block start at 254607360 (130 Gb)  = 844 ms
17:54:21 : Block start at 254623744 (130 Gb)  = 640 ms
17:54:22 : Block start at 254640128 (130 Gb)  = 1141 ms
17:54:23 : Block start at 254656512 (130 Gb)  = 1078 ms
17:54:29 : Block start at 256737280 (131 Gb)  = 1078 ms
17:54:31 : Block start at 256753664 (131 Gb)  = 2172 ms
17:54:34 : Block start at 256770048 (131 Gb)  = 2140 ms
17:54:36 : Warning! Block start at 256786432 (131 Gb)  = 2250 ms
17:54:38 : Block start at 256802816 (131 Gb)  = 2063 ms
17:54:40 : Block start at 256819200 (131 Gb)  = 2125 ms
17:54:42 : Block start at 256835584 (131 Gb)  = 1875 ms
17:54:44 : Block start at 256851968 (132 Gb)  = 1703 ms
17:54:45 : Block start at 256868352 (132 Gb)  = 1250 ms
17:54:46 : Block start at 256884736 (132 Gb)  = 1469 ms
17:54:47 : Block start at 256901120 (132 Gb)  = 1063 ms
17:54:49 : Block start at 256917504 (132 Gb)  = 1282 ms
17:54:50 : Block start at 256933888 (132 Gb)  = 922 ms
17:54:51 : Block start at 256950272 (132 Gb)  = 969 ms
17:54:52 : Block start at 256966656 (132 Gb)  = 891 ms
17:54:52 : Block start at 256983040 (132 Gb)  = 844 ms
17:54:53 : Block start at 256999424 (132 Gb)  = 1047 ms
17:54:54 : Block start at 257015808 (132 Gb)  = 907 ms
17:54:57 : Block start at 257196032 (132 Gb)  = 563 ms
17:54:58 : Block start at 257212416 (132 Gb)  = 625 ms
17:55:00 : Block start at 257261568 (132 Gb)  = 578 ms
17:55:04 : Block start at 257441792 (132 Gb)  = 656 ms
17:55:05 : Block start at 257458176 (132 Gb)  = 625 ms
17:55:06 : Block start at 257474560 (132 Gb)  = 891 ms
17:55:06 : Block start at 257490944 (132 Gb)  = 828 ms
17:55:07 : Block start at 257507328 (132 Gb)  = 1031 ms
17:55:08 : Block start at 257523712 (132 Gb)  = 1016 ms
17:55:10 : Block start at 257540096 (132 Gb)  = 1031 ms
17:55:11 : Block start at 257556480 (132 Gb)  = 1156 ms
17:55:12 : Block start at 257572864 (132 Gb)  = 1219 ms
17:55:13 : Block start at 257589248 (132 Gb)  = 1062 ms
17:55:14 : Block start at 257605632 (132 Gb)  = 1188 ms
17:55:15 : Block start at 257622016 (132 Gb)  = 1078 ms
17:55:16 : Block start at 257638400 (132 Gb)  = 984 ms
17:55:17 : Block start at 257671168 (132 Gb)  = 625 ms
17:55:18 : Block start at 257687552 (132 Gb)  = 1328 ms
17:55:20 : Block start at 257703936 (132 Gb)  = 1328 ms
17:55:21 : Block start at 257720320 (132 Gb)  = 1297 ms
17:55:22 : Block start at 257736704 (132 Gb)  = 1282 ms
17:55:23 : Block start at 257753088 (132 Gb)  = 984 ms
17:55:24 : Block start at 257769472 (132 Gb)  = 828 ms
17:55:25 : Block start at 257785856 (132 Gb)  = 688 ms
17:55:25 : Block start at 257802240 (132 Gb)  = 594 ms
17:55:26 : Block start at 257818624 (132 Gb)  = 609 ms
17:55:27 : Block start at 257835008 (132 Gb)  = 578 ms
17:55:27 : Block start at 257851392 (132 Gb)  = 609 ms
17:55:28 : Block start at 257867776 (132 Gb)  = 593 ms
17:55:28 : Block start at 257884160 (132 Gb)  = 609 ms
17:55:29 : Block start at 257900544 (132 Gb)  = 922 ms
17:55:30 : Block start at 257916928 (132 Gb)  = 922 ms
17:55:32 : Block start at 257933312 (132 Gb)  = 1203 ms
17:55:33 : Block start at 257949696 (132 Gb)  = 1266 ms
17:55:34 : Block start at 257966080 (132 Gb)  = 1094 ms
17:55:35 : Block start at 257998848 (132 Gb)  = 610 ms
17:55:36 : Block start at 258015232 (132 Gb)  = 1047 ms
17:55:39 : Block start at 258211840 (132 Gb)  = 1375 ms
17:55:40 : Block start at 258277376 (132 Gb)  = 719 ms
17:55:43 : Block start at 258785280 (132 Gb)  = 688 ms
17:55:44 : Block start at 258932736 (133 Gb)  = 656 ms
17:55:45 : Block start at 258949120 (133 Gb)  = 687 ms
17:55:48 : Block start at 259162112 (133 Gb)  = 797 ms
17:55:49 : Block start at 259178496 (133 Gb)  = 562 ms
17:55:54 : Block start at 259473408 (133 Gb)  = 625 ms
17:55:55 : Block start at 259489792 (133 Gb)  = 735 ms
17:55:55 : Block start at 259506176 (133 Gb)  = 687 ms
17:55:56 : Block start at 259522560 (133 Gb)  = 703 ms
17:55:57 : Block start at 259538944 (133 Gb)  = 859 ms
17:55:59 : Block start at 259588096 (133 Gb)  = 1359 ms
17:56:00 : Block start at 259604480 (133 Gb)  = 1328 ms
17:56:01 : Block start at 259620864 (133 Gb)  = 1297 ms
17:56:02 : Block start at 259637248 (133 Gb)  = 625 ms
17:56:04 : Block start at 259751936 (133 Gb)  = 718 ms
17:56:07 : Block start at 260046848 (133 Gb)  = 1015 ms
17:56:09 : Block start at 260063232 (133 Gb)  = 1250 ms
17:56:10 : Block start at 260079616 (133 Gb)  = 1141 ms
17:56:11 : Block start at 260096000 (133 Gb)  = 1062 ms
17:56:12 : Block start at 260112384 (133 Gb)  = 985 ms
17:56:13 : Block start at 260128768 (133 Gb)  = 1047 ms
17:56:14 : Block start at 260145152 (133 Gb)  = 938 ms
17:56:15 : Block start at 260161536 (133 Gb)  = 859 ms
17:56:16 : Block start at 260177920 (133 Gb)  = 1047 ms
17:56:17 : Block start at 260194304 (133 Gb)  = 1047 ms
17:56:18 : Block start at 260210688 (133 Gb)  = 1328 ms
17:56:20 : Block start at 260227072 (133 Gb)  = 1375 ms
17:56:21 : Block start at 260243456 (133 Gb)  = 1688 ms
17:56:23 : Block start at 260259840 (133 Gb)  = 1813 ms
17:56:25 : Block start at 260276224 (133 Gb)  = 1781 ms
17:56:27 : Block start at 260292608 (133 Gb)  = 1938 ms
17:56:29 : Block start at 260308992 (133 Gb)  = 2156 ms
17:56:31 : Block start at 260325376 (133 Gb)  = 1969 ms
17:56:33 : Block start at 260341760 (133 Gb)  = 2156 ms
17:56:35 : Block start at 260358144 (133 Gb)  = 2093 ms
17:56:37 : Block start at 260374528 (133 Gb)  = 2000 ms
17:56:39 : Block start at 260390912 (133 Gb)  = 2156 ms
17:56:42 : Block start at 260407296 (133 Gb)  = 2062 ms
17:56:44 : Block start at 260423680 (133 Gb)  = 2078 ms
17:56:46 : Block start at 260440064 (133 Gb)  = 2156 ms
17:56:48 : Block start at 260456448 (133 Gb)  = 1968 ms
17:56:50 : Block start at 260472832 (133 Gb)  = 2110 ms
17:56:52 : Block start at 260489216 (133 Gb)  = 2031 ms
17:56:53 : Block start at 260505600 (133 Gb)  = 937 ms
17:57:08 : Block start at 263553024 (135 Gb)  = 797 ms
17:57:09 : Block start at 263569408 (135 Gb)  = 922 ms
17:57:10 : Block start at 263602176 (135 Gb)  = 766 ms
17:57:11 : Block start at 263618560 (135 Gb)  = 625 ms
17:57:17 : Block start at 264175616 (135 Gb)  = 765 ms
17:57:18 : Block start at 264224768 (135 Gb)  = 750 ms
17:57:23 : Block start at 264650752 (136 Gb)  = 1891 ms
17:57:25 : Block start at 264667136 (136 Gb)  = 1906 ms
17:57:28 : Block start at 265109504 (136 Gb)  = 765 ms
17:57:32 : Block start at 265830400 (136 Gb)  = 1078 ms
17:57:35 : Block start at 265945088 (136 Gb)  = 640 ms
17:57:36 : Block start at 266010624 (136 Gb)  = 578 ms
17:57:37 : Block start at 266092544 (136 Gb)  = 812 ms
17:57:38 : Block start at 266125312 (136 Gb)  = 703 ms
17:57:45 : Block start at 267337728 (137 Gb)  = 906 ms
17:57:46 : Block start at 267354112 (137 Gb)  = 750 ms
17:57:49 : Block start at 267665408 (137 Gb)  = 1469 ms
17:57:50 : Block start at 267681792 (137 Gb)  = 969 ms
17:57:53 : Block start at 268255232 (137 Gb)  = 1594 ms
17:57:54 : Block start at 268271616 (137 Gb)  = 640 ms
17:57:55 : Block start at 268304384 (137 Gb)  = 1422 ms
17:57:57 : Block start at 268320768 (137 Gb)  = 1500 ms
17:57:58 : Block start at 268337152 (137 Gb)  = 1563 ms
17:58:00 : Block start at 268353536 (137 Gb)  = 1797 ms
17:58:01 : Block start at 268369920 (137 Gb)  = 1078 ms
17:58:03 : Block start at 268386304 (137 Gb)  = 1531 ms
17:58:04 : Block start at 268402688 (137 Gb)  = 719 ms
17:58:04 : Block start at 268419072 (137 Gb)  = 875 ms
17:58:10 : Block start at 268795904 (138 Gb)  = 781 ms
17:58:11 : Block start at 268812288 (138 Gb)  = 1062 ms
17:58:13 : Block start at 268828672 (138 Gb)  = 1235 ms
17:58:13 : Block start at 268845056 (138 Gb)  = 875 ms
17:58:15 : Block start at 268894208 (138 Gb)  = 1156 ms
17:58:16 : Block start at 268910592 (138 Gb)  = 1375 ms
17:58:17 : Block start at 268926976 (138 Gb)  = 1266 ms
17:58:19 : Block start at 268943360 (138 Gb)  = 1266 ms
17:58:20 : Block start at 268959744 (138 Gb)  = 1234 ms
17:58:21 : Block start at 268976128 (138 Gb)  = 1250 ms
17:58:24 : Block start at 269631488 (138 Gb)  = 828 ms
17:58:25 : Block start at 269647872 (138 Gb)  = 735 ms
17:58:26 : Block start at 269664256 (138 Gb)  = 859 ms
17:58:27 : Block start at 269680640 (138 Gb)  = 828 ms
17:58:28 : Block start at 269697024 (138 Gb)  = 812 ms
17:58:28 : Block start at 269713408 (138 Gb)  = 844 ms
17:58:29 : Block start at 269729792 (138 Gb)  = 906 ms
17:58:30 : Block start at 269746176 (138 Gb)  = 937 ms
17:58:31 : Block start at 269762560 (138 Gb)  = 906 ms
17:58:32 : Block start at 269778944 (138 Gb)  = 953 ms
17:58:33 : Block start at 269795328 (138 Gb)  = 1016 ms
17:58:36 : Block start at 269910016 (138 Gb)  = 656 ms
17:58:38 : Block start at 269942784 (138 Gb)  = 703 ms
17:58:44 : Block start at 271155200 (139 Gb)  = 578 ms
17:58:47 : Block start at 271450112 (139 Gb)  = 1891 ms
17:58:47 : Block start at 271466496 (139 Gb)  = 687 ms
17:58:49 : Block start at 271532032 (139 Gb)  = 1484 ms
17:58:50 : Block start at 271548416 (139 Gb)  = 1047 ms
17:58:52 : Block start at 271564800 (139 Gb)  = 1375 ms
17:58:53 : Block start at 271581184 (139 Gb)  = 1015 ms
17:58:54 : Block start at 271597568 (139 Gb)  = 1422 ms
17:58:55 : Block start at 271613952 (139 Gb)  = 656 ms
17:58:56 : Block start at 271630336 (139 Gb)  = 937 ms
17:58:57 : Block start at 271646720 (139 Gb)  = 672 ms
17:58:57 : Block start at 271663104 (139 Gb)  = 750 ms
17:58:58 : Block start at 271679488 (139 Gb)  = 843 ms
17:58:59 : Block start at 271695872 (139 Gb)  = 672 ms
17:58:59 : Block start at 271712256 (139 Gb)  = 625 ms
17:59:00 : Block start at 271728640 (139 Gb)  = 672 ms
17:59:01 : Block start at 271745024 (139 Gb)  = 1000 ms
17:59:02 : Block start at 271761408 (139 Gb)  = 875 ms
17:59:03 : Block start at 271777792 (139 Gb)  = 1422 ms
17:59:05 : Block start at 271794176 (139 Gb)  = 1312 ms
17:59:06 : Block start at 271810560 (139 Gb)  = 1516 ms
17:59:08 : Block start at 271826944 (139 Gb)  = 1594 ms
17:59:09 : Block start at 271843328 (139 Gb)  = 859 ms
17:59:10 : Block start at 271859712 (139 Gb)  = 719 ms
17:59:13 : Block start at 272367616 (139 Gb)  = 687 ms
17:59:14 : Block start at 272384000 (139 Gb)  = 1172 ms
17:59:17 : Block start at 273039360 (140 Gb)  = 578 ms
17:59:30 : Block start at 276840448 (142 Gb)  = 688 ms
17:59:31 : Block start at 276856832 (142 Gb)  = 875 ms
17:59:32 : Block start at 276873216 (142 Gb)  = 1328 ms
17:59:36 : Block start at 278003712 (142 Gb)  = 578 ms
17:59:37 : Block start at 278020096 (142 Gb)  = 734 ms
17:59:38 : Block start at 278036480 (142 Gb)  = 1282 ms
17:59:43 : Block start at 279150592 (143 Gb)  = 563 ms
17:59:43 : Block start at 279166976 (143 Gb)  = 796 ms
17:59:44 : Block start at 279183360 (143 Gb)  = 1047 ms
17:59:45 : Block start at 279199744 (143 Gb)  = 953 ms
17:59:47 : Block start at 279642112 (143 Gb)  = 719 ms
17:59:58 : Block start at 282296320 (145 Gb)  = 672 ms
17:59:59 : Block start at 282312704 (145 Gb)  = 719 ms
18:00:00 : Block start at 282329088 (145 Gb)  = 937 ms
18:00:00 : Block start at 282345472 (145 Gb)  = 609 ms
18:00:03 : Block start at 282968064 (145 Gb)  = 594 ms
18:00:06 : Block start at 283836416 (145 Gb)  = 797 ms
18:00:35 : Block start at 293027840 (150 Gb)  = 594 ms
18:00:36 : Block start at 293044224 (150 Gb)  = 687 ms
18:00:37 : Block start at 293060608 (150 Gb)  = 766 ms
18:00:38 : Block start at 293076992 (150 Gb)  = 985 ms
18:00:39 : Block start at 293093376 (150 Gb)  = 1218 ms
18:00:40 : Block start at 293109760 (150 Gb)  = 860 ms
18:00:44 : Block start at 293994496 (151 Gb)  = 735 ms
18:00:49 : Block start at 295141376 (151 Gb)  = 610 ms
18:00:50 : Block start at 295157760 (151 Gb)  = 562 ms
18:01:56 : Block start at 321667072 (165 Gb)  = 719 ms
18:01:57 : Block start at 321683456 (165 Gb)  = 828 ms
18:01:58 : Block start at 321699840 (165 Gb)  = 906 ms
18:01:59 : Block start at 321716224 (165 Gb)  = 641 ms
18:01:59 : Block start at 321732608 (165 Gb)  = 703 ms
18:02:01 : Block start at 321814528 (165 Gb)  = 703 ms
18:03:39 : Block start at 364691456 (187 Gb)  = 719 ms
18:03:41 : Block start at 364756992 (187 Gb)  = 625 ms
18:03:41 : Block start at 364773376 (187 Gb)  = 656 ms
18:03:43 : Block start at 364789760 (187 Gb)  = 1079 ms
18:03:44 : Block start at 364822528 (187 Gb)  = 859 ms
18:03:45 : Block start at 364838912 (187 Gb)  = 937 ms
18:03:46 : Block start at 364855296 (187 Gb)  = 1078 ms
18:03:47 : Block start at 364871680 (187 Gb)  = 1313 ms
18:03:48 : Block start at 364888064 (187 Gb)  = 1156 ms
18:03:50 : Block start at 364904448 (187 Gb)  = 1406 ms
18:03:51 : Block start at 364920832 (187 Gb)  = 1157 ms
18:03:52 : Block start at 364937216 (187 Gb)  = 1141 ms
18:03:54 : Block start at 364953600 (187 Gb)  = 1391 ms
18:03:55 : Block start at 364969984 (187 Gb)  = 1203 ms
18:03:57 : Block start at 365068288 (187 Gb)  = 625 ms
18:03:58 : Block start at 365101056 (187 Gb)  = 703 ms
18:03:59 : Block start at 365117440 (187 Gb)  = 641 ms
18:03:59 : Block start at 365133824 (187 Gb)  = 656 ms
18:04:00 : Block start at 365150208 (187 Gb)  = 1032 ms
18:04:01 : Block start at 365166592 (187 Gb)  = 563 ms
18:04:02 : Block start at 365182976 (187 Gb)  = 750 ms
18:04:02 : Block start at 365199360 (187 Gb)  = 859 ms
18:04:03 : Block start at 365215744 (187 Gb)  = 984 ms
18:04:04 : Block start at 365232128 (187 Gb)  = 907 ms
18:04:05 : Block start at 365248512 (187 Gb)  = 922 ms
18:04:06 : Block start at 365264896 (187 Gb)  = 1047 ms
18:04:07 : Block start at 365281280 (187 Gb)  = 1125 ms
18:04:09 : Block start at 365297664 (187 Gb)  = 1781 ms
18:04:10 : Block start at 365314048 (187 Gb)  = 1047 ms
18:04:11 : Block start at 365330432 (187 Gb)  = 1172 ms
18:04:13 : Block start at 365346816 (187 Gb)  = 1344 ms
18:04:14 : Block start at 365363200 (187 Gb)  = 1063 ms
18:04:15 : Block start at 365379584 (187 Gb)  = 1390 ms
18:04:17 : Block start at 365395968 (187 Gb)  = 1625 ms
18:04:18 : Block start at 365412352 (187 Gb)  = 1078 ms
18:04:19 : Block start at 365428736 (187 Gb)  = 1281 ms
18:04:21 : Block start at 365445120 (187 Gb)  = 1563 ms
18:04:22 : Block start at 365461504 (187 Gb)  = 1375 ms
18:04:24 : Block start at 365477888 (187 Gb)  = 1516 ms
18:04:25 : Block start at 365494272 (187 Gb)  = 1360 ms
18:04:26 : Block start at 365510656 (187 Gb)  = 968 ms
18:04:28 : Block start at 365527040 (187 Gb)  = 1688 ms
18:04:33 : Block start at 366051328 (187 Gb)  = 671 ms
18:04:34 : Block start at 366067712 (187 Gb)  = 860 ms
18:04:35 : Block start at 366084096 (187 Gb)  = 1047 ms
18:04:36 : Block start at 366100480 (187 Gb)  = 891 ms
18:04:36 : Block start at 366116864 (187 Gb)  = 859 ms
18:04:37 : Block start at 366133248 (187 Gb)  = 907 ms
18:04:38 : Block start at 366149632 (187 Gb)  = 921 ms
18:04:39 : Block start at 366166016 (187 Gb)  = 813 ms
18:04:40 : Block start at 366182400 (187 Gb)  = 906 ms
18:04:41 : Block start at 366198784 (187 Gb)  = 625 ms
18:04:42 : Block start at 366215168 (188 Gb)  = 938 ms
18:04:42 : Block start at 366231552 (188 Gb)  = 953 ms
18:04:43 : Block start at 366247936 (188 Gb)  = 766 ms
18:04:44 : Block start at 366264320 (188 Gb)  = 688 ms
18:04:45 : Block start at 366280704 (188 Gb)  = 1515 ms
18:04:46 : Block start at 366297088 (188 Gb)  = 891 ms
18:04:47 : Block start at 366313472 (188 Gb)  = 750 ms
18:04:48 : Block start at 366329856 (188 Gb)  = 937 ms
18:04:49 : Block start at 366346240 (188 Gb)  = 1000 ms
18:04:50 : Block start at 366362624 (188 Gb)  = 1062 ms
18:04:51 : Block start at 366379008 (188 Gb)  = 1266 ms
18:04:53 : Block start at 366395392 (188 Gb)  = 1812 ms
18:04:55 : Block start at 366411776 (188 Gb)  = 1797 ms
18:04:56 : Block start at 366428160 (188 Gb)  = 1343 ms
18:04:58 : Block start at 366444544 (188 Gb)  = 1719 ms
18:05:00 : Block start at 366460928 (188 Gb)  = 1531 ms
18:05:01 : Block start at 366477312 (188 Gb)  = 1656 ms
18:05:03 : Block start at 366493696 (188 Gb)  = 1750 ms
18:05:04 : Block start at 366510080 (188 Gb)  = 1266 ms
18:05:06 : Block start at 366526464 (188 Gb)  = 1375 ms
18:05:07 : Block start at 366542848 (188 Gb)  = 1329 ms
18:05:08 : Block start at 366559232 (188 Gb)  = 687 ms
18:05:10 : Block start at 366575616 (188 Gb)  = 1797 ms
18:05:10 : Block start at 366592000 (188 Gb)  = 625 ms
18:05:12 : Block start at 366608384 (188 Gb)  = 2187 ms
18:05:13 : Block start at 366624768 (188 Gb)  = 813 ms
18:05:14 : Block start at 366641152 (188 Gb)  = 1094 ms
18:05:15 : Block start at 366673920 (188 Gb)  = 688 ms
18:05:20 : Block start at 366903296 (188 Gb)  = 718 ms
18:05:21 : Block start at 366936064 (188 Gb)  = 719 ms
18:05:21 : Block start at 366952448 (188 Gb)  = 703 ms
18:05:22 : Block start at 366968832 (188 Gb)  = 734 ms
18:05:23 : Block start at 366985216 (188 Gb)  = 672 ms
18:05:23 : Block start at 367001600 (188 Gb)  = 594 ms
18:05:24 : Block start at 367017984 (188 Gb)  = 859 ms
18:05:25 : Block start at 367050752 (188 Gb)  = 859 ms
18:05:26 : Block start at 367067136 (188 Gb)  = 641 ms
18:05:27 : Block start at 367099904 (188 Gb)  = 579 ms
18:05:27 : Block start at 367116288 (188 Gb)  = 766 ms
18:05:28 : Block start at 367132672 (188 Gb)  = 953 ms
18:05:29 : Block start at 367149056 (188 Gb)  = 1000 ms
18:05:31 : Block start at 367165440 (188 Gb)  = 1156 ms
18:05:32 : Block start at 367181824 (188 Gb)  = 1016 ms
18:05:32 : Block start at 367198208 (188 Gb)  = 875 ms
18:05:34 : Block start at 367214592 (188 Gb)  = 1063 ms
18:05:34 : Block start at 367230976 (188 Gb)  = 937 ms
18:05:35 : Block start at 367247360 (188 Gb)  = 719 ms
18:05:36 : Block start at 367263744 (188 Gb)  = 813 ms
18:05:37 : Block start at 367280128 (188 Gb)  = 719 ms
18:05:37 : Block start at 367296512 (188 Gb)  = 625 ms
18:05:38 : Block start at 367312896 (188 Gb)  = 1016 ms
18:05:39 : Block start at 367329280 (188 Gb)  = 640 ms
18:05:40 : Block start at 367345664 (188 Gb)  = 813 ms
18:05:41 : Block start at 367362048 (188 Gb)  = 1046 ms
18:05:42 : Block start at 367378432 (188 Gb)  = 704 ms
18:05:43 : Block start at 367394816 (188 Gb)  = 1156 ms
18:05:44 : Block start at 367411200 (188 Gb)  = 1094 ms
18:05:45 : Block start at 367427584 (188 Gb)  = 953 ms
18:05:46 : Block start at 367443968 (188 Gb)  = 922 ms
18:05:47 : Block start at 367460352 (188 Gb)  = 1125 ms
18:05:48 : Block start at 367476736 (188 Gb)  = 1469 ms
18:05:50 : Block start at 367493120 (188 Gb)  = 1734 ms
18:05:52 : Block start at 367509504 (188 Gb)  = 1734 ms
18:05:54 : Block start at 367525888 (188 Gb)  = 1750 ms
18:05:55 : Block start at 367542272 (188 Gb)  = 1812 ms
18:05:58 : Block start at 367558656 (188 Gb)  = 2063 ms
18:05:59 : Block start at 367575040 (188 Gb)  = 1734 ms
18:06:01 : Block start at 367591424 (188 Gb)  = 1984 ms
18:06:03 : Block start at 367607808 (188 Gb)  = 1360 ms
18:06:10 : Block start at 368590848 (189 Gb)  = 562 ms
18:06:11 : Block start at 368607232 (189 Gb)  = 656 ms
18:06:12 : Block start at 368640000 (189 Gb)  = 922 ms
18:06:13 : Block start at 368656384 (189 Gb)  = 843 ms
18:06:14 : Block start at 368672768 (189 Gb)  = 922 ms
18:06:15 : Block start at 368689152 (189 Gb)  = 1250 ms
18:06:16 : Block start at 368705536 (189 Gb)  = 1313 ms
18:06:17 : Block start at 368721920 (189 Gb)  = 859 ms
18:06:18 : Block start at 368738304 (189 Gb)  = 594 ms
18:06:19 : Block start at 368754688 (189 Gb)  = 813 ms
18:06:25 : Block start at 369754112 (189 Gb)  = 812 ms
18:06:26 : Block start at 369770496 (189 Gb)  = 922 ms
18:06:30 : Block start at 370098176 (189 Gb)  = 687 ms
18:06:31 : Block start at 370130944 (190 Gb)  = 563 ms
18:06:32 : Block start at 370163712 (190 Gb)  = 562 ms
18:06:33 : Block start at 370196480 (190 Gb)  = 562 ms
18:06:35 : Block start at 370229248 (190 Gb)  = 625 ms
18:06:35 : Block start at 370245632 (190 Gb)  = 703 ms
18:06:36 : Block start at 370262016 (190 Gb)  = 672 ms
18:06:37 : Block start at 370278400 (190 Gb)  = 1093 ms
18:06:38 : Block start at 370294784 (190 Gb)  = 891 ms
18:06:39 : Block start at 370311168 (190 Gb)  = 1000 ms
18:06:40 : Block start at 370327552 (190 Gb)  = 1125 ms
18:06:41 : Block start at 370360320 (190 Gb)  = 610 ms
18:06:46 : Block start at 370835456 (190 Gb)  = 1453 ms
18:06:48 : Block start at 370868224 (190 Gb)  = 984 ms
18:06:48 : Block start at 370884608 (190 Gb)  = 719 ms
18:06:49 : Block start at 370900992 (190 Gb)  = 594 ms
18:06:50 : Block start at 370917376 (190 Gb)  = 1016 ms
18:06:51 : Block start at 370933760 (190 Gb)  = 953 ms
18:06:52 : Block start at 370950144 (190 Gb)  = 1578 ms
18:06:54 : Block start at 370966528 (190 Gb)  = 1906 ms
18:06:56 : Block start at 370982912 (190 Gb)  = 1422 ms
18:06:58 : Block start at 370999296 (190 Gb)  = 1890 ms
18:07:00 : Block start at 371015680 (190 Gb)  = 1907 ms
18:07:01 : Block start at 371032064 (190 Gb)  = 1672 ms
18:07:03 : Block start at 371048448 (190 Gb)  = 2063 ms
18:07:05 : Block start at 371064832 (190 Gb)  = 1812 ms
18:07:07 : Block start at 371081216 (190 Gb)  = 1938 ms
18:07:09 : Block start at 371097600 (190 Gb)  = 1484 ms
18:07:10 : Block start at 371113984 (190 Gb)  = 1516 ms
18:07:11 : Block start at 371130368 (190 Gb)  = 1203 ms
18:07:13 : Block start at 371146752 (190 Gb)  = 1235 ms
18:07:14 : Block start at 371163136 (190 Gb)  = 1000 ms
18:07:14 : Block start at 371179520 (190 Gb)  = 875 ms
18:07:15 : Block start at 371195904 (190 Gb)  = 969 ms
18:07:16 : Block start at 371212288 (190 Gb)  = 860 ms
18:07:17 : Block start at 371228672 (190 Gb)  = 969 ms
18:07:18 : Block start at 371245056 (190 Gb)  = 1000 ms
18:07:19 : Block start at 371261440 (190 Gb)  = 969 ms
18:07:20 : Block start at 371277824 (190 Gb)  = 875 ms
18:07:21 : Block start at 371294208 (190 Gb)  = 1047 ms
18:07:22 : Block start at 371310592 (190 Gb)  = 953 ms
18:07:24 : Block start at 371326976 (190 Gb)  = 1359 ms
18:07:25 : Block start at 371343360 (190 Gb)  = 1359 ms
18:07:26 : Block start at 371359744 (190 Gb)  = 1484 ms
18:07:28 : Block start at 371376128 (190 Gb)  = 1453 ms
18:07:36 : Block start at 372703232 (191 Gb)  = 672 ms
18:07:37 : Block start at 372719616 (191 Gb)  = 937 ms
18:07:39 : Block start at 372752384 (191 Gb)  = 1203 ms
18:07:41 : Block start at 372817920 (191 Gb)  = 594 ms
18:07:45 : Warning! Block start at 373473280 (191 Gb)  = 2313 ms
18:07:47 : Block start at 373489664 (191 Gb)  = 1312 ms
18:07:49 : Block start at 373506048 (191 Gb)  = 2157 ms
18:07:51 : Block start at 373522432 (191 Gb)  = 2032 ms
18:07:53 : Block start at 373538816 (191 Gb)  = 1985 ms
18:07:55 : Block start at 373555200 (191 Gb)  = 1922 ms
18:07:57 : Block start at 373571584 (191 Gb)  = 2187 ms
18:07:59 : Warning! Block start at 373587968 (191 Gb)  = 2297 ms
18:08:01 : Block start at 373604352 (191 Gb)  = 2047 ms
18:08:04 : Warning! Block start at 373620736 (191 Gb)  = 2203 ms
18:08:06 : Block start at 373637120 (191 Gb)  = 2000 ms
18:08:08 : Warning! Block start at 373653504 (191 Gb)  = 2250 ms
18:08:10 : Block start at 373669888 (191 Gb)  = 2047 ms
18:08:11 : Block start at 373686272 (191 Gb)  = 657 ms
18:08:12 : Block start at 373768192 (191 Gb)  = 594 ms
18:08:28 : Surface scan paused
18:08:28 : Surface scan resumped
18:08:30 : Surface scan paused
18:08:31 : Surface scan resumped
18:08:33 : Surface scan paused
  :
18:12:27 : Get passport... OK
18:12:27 : Recallibration... OK
18:12:27 : Starting Reading, LBA=376635392..1000215215, FULL, sequential access, timeout 10000ms
18:12:39 : Block start at 381288448 (195 Gb)  = 625 ms
18:12:39 : Block start at 381304832 (195 Gb)  = 625 ms
18:12:40 : Block start at 381321216 (195 Gb)  = 609 ms
18:12:41 : Block start at 381337600 (195 Gb)  = 766 ms
18:12:42 : Block start at 381485056 (195 Gb)  = 718 ms
18:12:43 : Block start at 381501440 (195 Gb)  = 625 ms
18:12:44 : Block start at 381517824 (195 Gb)  = 562 ms
18:12:44 : Block start at 381534208 (195 Gb)  = 703 ms
18:12:45 : Block start at 381550592 (195 Gb)  = 688 ms
18:12:47 : Block start at 381648896 (195 Gb)  = 610 ms
18:12:51 : Block start at 382074880 (196 Gb)  = 828 ms
18:12:52 : Block start at 382091264 (196 Gb)  = 609 ms
18:12:54 : Block start at 382255104 (196 Gb)  = 719 ms
18:13:14 : Block start at 386105344 (198 Gb)  = 968 ms
18:13:16 : Block start at 386121728 (198 Gb)  = 1047 ms
18:13:17 : Block start at 386138112 (198 Gb)  = 1250 ms
18:13:18 : Block start at 386154496 (198 Gb)  = 1390 ms
18:13:23 : Block start at 388794294 (199 Gb)  = 875 ms
18:13:24 : Block start at 388810678 (199 Gb)  = 1250 ms
18:13:25 : Block start at 388843446 (199 Gb)  = 609 ms
18:13:26 : Block start at 388859830 (199 Gb)  = 1141 ms
18:13:28 : Block start at 388876214 (199 Gb)  = 1265 ms
18:13:29 : Block start at 388892598 (199 Gb)  = 1265 ms
18:13:30 : Block start at 388908982 (199 Gb)  = 1329 ms
18:13:32 : Block start at 388925366 (199 Gb)  = 1375 ms
18:13:39 : Block start at 389597110 (199 Gb)  = 1594 ms
18:13:41 : Warning! Block start at 389613494 (199 Gb)  = 2203 ms
18:13:43 : Block start at 389629878 (199 Gb)  = 1890 ms
18:13:45 : Block start at 389646262 (199 Gb)  = 1782 ms
18:13:47 : Block start at 389662646 (200 Gb)  = 2000 ms
18:13:48 : Block start at 389679030 (200 Gb)  = 1282 ms
18:13:50 : Block start at 389695414 (200 Gb)  = 1765 ms
18:13:51 : Block start at 389711798 (200 Gb)  = 907 ms
18:13:52 : Block start at 389793718 (200 Gb)  = 859 ms
18:13:53 : Block start at 389810102 (200 Gb)  = 563 ms
18:13:58 : Block start at 390563766 (200 Gb)  = 734 ms
18:13:59 : Block start at 390596534 (200 Gb)  = 938 ms
18:14:00 : Block start at 390629302 (200 Gb)  = 906 ms
18:14:02 : Block start at 390662070 (200 Gb)  = 1109 ms
18:14:03 : Block start at 390678454 (200 Gb)  = 922 ms
18:14:04 : Block start at 390694838 (200 Gb)  = 844 ms
18:14:05 : Block start at 391958380 (201 Gb)  = 968 ms
18:14:06 : Block start at 391974764 (201 Gb)  = 922 ms
18:14:06 : Block start at 391991148 (201 Gb)  = 609 ms
18:14:07 : Block start at 392007532 (201 Gb)  = 688 ms
18:14:08 : Block start at 392040300 (201 Gb)  = 735 ms
18:14:09 : Block start at 392056684 (201 Gb)  = 609 ms
18:14:09 : Block start at 392073068 (201 Gb)  = 688 ms
18:14:10 : Block start at 392089452 (201 Gb)  = 703 ms
18:14:11 : Block start at 392105836 (201 Gb)  = 688 ms
18:14:12 : Block start at 392138604 (201 Gb)  = 594 ms
18:14:13 : Block start at 392154988 (201 Gb)  = 937 ms
18:14:13 : Block start at 392171372 (201 Gb)  = 610 ms
18:14:14 : Block start at 392187756 (201 Gb)  = 750 ms
18:14:17 : Block start at 393467682 (201 Gb)  = 2125 ms
18:14:20 : Block start at 393828130 (202 Gb)  = 578 ms
18:14:21 : Block start at 393844514 (202 Gb)  = 750 ms
18:14:21 : Block start at 393860898 (202 Gb)  = 656 ms
18:14:22 : Block start at 393877282 (202 Gb)  = 859 ms
18:14:23 : Block start at 393893666 (202 Gb)  = 703 ms
18:14:24 : Block start at 393910050 (202 Gb)  = 703 ms
18:14:24 : Block start at 393926434 (202 Gb)  = 563 ms
18:14:33 : Block start at 394696482 (202 Gb)  = 719 ms
18:14:34 : Block start at 394712866 (202 Gb)  = 1093 ms
18:14:35 : Block start at 394729250 (202 Gb)  = 1047 ms
18:14:36 : Block start at 394745634 (202 Gb)  = 985 ms
18:14:42 : Block start at 396944051 (203 Gb)  = 735 ms
18:14:42 : Block start at 396960435 (203 Gb)  = 797 ms
18:14:48 : Block start at 397370035 (203 Gb)  = 687 ms
18:14:50 : Block start at 397435571 (203 Gb)  = 1390 ms
18:14:51 : Block start at 397451955 (203 Gb)  = 1250 ms
18:14:52 : Block start at 397501107 (204 Gb)  = 797 ms
18:15:00 : Block start at 398434995 (204 Gb)  = 594 ms
18:15:01 : Block start at 398451379 (204 Gb)  = 797 ms
18:15:02 : Block start at 398467763 (204 Gb)  = 812 ms
18:15:02 : Block start at 398484147 (204 Gb)  = 657 ms
18:15:03 : Block start at 398500531 (204 Gb)  = 890 ms
18:15:04 : Block start at 398516915 (204 Gb)  = 1110 ms
18:15:06 : Block start at 398533299 (204 Gb)  = 1391 ms
18:15:07 : Block start at 398549683 (204 Gb)  = 1484 ms
18:15:09 : Block start at 400436804 (205 Gb)  = 1547 ms
18:15:11 : Block start at 400485956 (205 Gb)  = 984 ms
18:15:12 : Block start at 400502340 (205 Gb)  = 734 ms
18:15:17 : Block start at 401534532 (206 Gb)  = 1125 ms
18:15:28 : Block start at 403664452 (207 Gb)  = 891 ms
18:15:29 : Block start at 403697220 (207 Gb)  = 578 ms
18:15:30 : Block start at 403713604 (207 Gb)  = 890 ms
18:15:31 : Block start at 403729988 (207 Gb)  = 719 ms
18:15:31 : Block start at 403746372 (207 Gb)  = 672 ms
18:15:33 : Block start at 403811908 (207 Gb)  = 859 ms
18:15:34 : Block start at 403828292 (207 Gb)  = 1219 ms
18:15:41 : Block start at 404975172 (207 Gb)  = 906 ms
18:15:42 : Block start at 404991556 (207 Gb)  = 797 ms
18:15:43 : Block start at 405188164 (207 Gb)  = 609 ms
18:15:44 : Block start at 405204548 (207 Gb)  = 781 ms
18:15:45 : Block start at 405270084 (207 Gb)  = 625 ms
18:15:46 : Block start at 405335620 (208 Gb)  = 609 ms
18:15:47 : Block start at 405352004 (208 Gb)  = 625 ms
18:15:54 : Block start at 406072900 (208 Gb)  = 906 ms
18:15:55 : Block start at 406089284 (208 Gb)  = 797 ms
18:15:56 : Block start at 406105668 (208 Gb)  = 594 ms
18:16:29 : Block start at 416624196 (213 Gb)  = 656 ms
18:16:30 : Block start at 416640580 (213 Gb)  = 984 ms
18:16:30 : Block start at 416656964 (213 Gb)  = 828 ms
18:16:31 : Block start at 416673348 (213 Gb)  = 969 ms
18:16:33 : Block start at 416689732 (213 Gb)  = 1328 ms
18:16:33 : Block start at 416706116 (213 Gb)  = 765 ms
18:16:35 : Block start at 416722500 (213 Gb)  = 1485 ms
18:16:36 : Block start at 416738884 (213 Gb)  = 687 ms
18:16:40 : Block start at 417623620 (214 Gb)  = 578 ms
18:16:41 : Block start at 417656388 (214 Gb)  = 703 ms
18:16:42 : Block start at 417672772 (214 Gb)  = 844 ms
18:16:43 : Block start at 417689156 (214 Gb)  = 906 ms
18:16:44 : Block start at 417705540 (214 Gb)  = 1188 ms
18:16:49 : Block start at 418819652 (214 Gb)  = 843 ms
18:16:52 : Block start at 419409476 (215 Gb)  = 688 ms
18:16:55 : Block start at 419737156 (215 Gb)  = 625 ms
18:17:02 : Block start at 421326404 (216 Gb)  = 563 ms
18:17:08 : Block start at 422784580 (216 Gb)  = 922 ms
18:17:11 : Block start at 423554628 (217 Gb)  = 703 ms
18:17:14 : Block start at 424111684 (217 Gb)  = 704 ms
18:17:15 : Block start at 424128068 (217 Gb)  = 1125 ms
18:17:17 : Block start at 424144452 (217 Gb)  = 1485 ms
18:17:18 : Block start at 424160836 (217 Gb)  = 1281 ms
18:17:22 : Block start at 424963652 (218 Gb)  = 562 ms
18:17:23 : Block start at 424980036 (218 Gb)  = 1000 ms
18:17:24 : Block start at 424996420 (218 Gb)  = 1344 ms
18:17:26 : Block start at 425012804 (218 Gb)  = 1625 ms
18:17:39 : Block start at 429289028 (220 Gb)  = 641 ms
18:17:42 : Block start at 430272068 (220 Gb)  = 703 ms
18:17:43 : Block start at 430288452 (220 Gb)  = 1125 ms
18:17:45 : Block start at 430304836 (220 Gb)  = 1422 ms
18:17:46 : Block start at 430321220 (220 Gb)  = 750 ms
18:17:49 : Block start at 431124036 (221 Gb)  = 672 ms
18:17:50 : Block start at 431140420 (221 Gb)  = 937 ms
18:17:52 : Block start at 431156804 (221 Gb)  = 1531 ms
18:17:53 : Block start at 431173188 (221 Gb)  = 719 ms
18:17:55 : Block start at 431779396 (221 Gb)  = 594 ms
18:17:58 : Block start at 432795204 (222 Gb)  = 578 ms
18:17:59 : Block start at 432811588 (222 Gb)  = 859 ms
18:18:00 : Block start at 432827972 (222 Gb)  = 1031 ms
18:18:12 : Block start at 436956740 (224 Gb)  = 594 ms
18:18:17 : Block start at 438414916 (224 Gb)  = 594 ms
18:18:22 : Block start at 439578180 (225 Gb)  = 797 ms
18:18:23 : Block start at 439594564 (225 Gb)  = 609 ms
18:18:26 : Block start at 440184388 (225 Gb)  = 719 ms
18:18:38 : Block start at 443428420 (227 Gb)  = 594 ms
18:18:39 : Block start at 443444804 (227 Gb)  = 969 ms
18:18:41 : Block start at 443461188 (227 Gb)  = 1562 ms
18:18:44 : Block start at 444067396 (227 Gb)  = 688 ms
18:18:44 : Block start at 444083780 (227 Gb)  = 609 ms
18:18:49 : Block start at 445443652 (228 Gb)  = 703 ms
18:18:54 : Block start at 446606916 (229 Gb)  = 968 ms
18:19:03 : Block start at 449097284 (230 Gb)  = 578 ms
18:19:08 : Block start at 450293316 (231 Gb)  = 578 ms
18:19:21 : Block start at 453602884 (232 Gb)  = 781 ms
18:19:21 : Block start at 453619268 (232 Gb)  = 610 ms
18:19:24 : Block start at 454209092 (233 Gb)  = 625 ms
18:19:27 : Block start at 454749764 (233 Gb)  = 750 ms
18:19:30 : Block start at 455667268 (233 Gb)  = 765 ms
18:19:32 : Block start at 455945796 (233 Gb)  = 703 ms
18:19:45 : Block start at 460254788 (236 Gb)  = 641 ms
18:19:46 : Block start at 460271172 (236 Gb)  = 1063 ms
18:19:48 : Block start at 460729924 (236 Gb)  = 625 ms
18:19:49 : Block start at 460746308 (236 Gb)  = 593 ms
18:19:51 : Block start at 461057604 (236 Gb)  = 797 ms
18:19:53 : Block start at 461516356 (236 Gb)  = 718 ms
18:20:02 : Block start at 463089220 (237 Gb)  = 703 ms
18:20:03 : Block start at 463171140 (237 Gb)  = 766 ms
18:20:05 : Block start at 463253060 (237 Gb)  = 578 ms
18:20:09 : Block start at 463679044 (237 Gb)  = 703 ms
18:20:11 : Block start at 463793732 (237 Gb)  = 812 ms
18:20:12 : Block start at 463842884 (237 Gb)  = 1078 ms
18:20:13 : Block start at 463908420 (238 Gb)  = 594 ms
18:20:16 : Block start at 465038916 (238 Gb)  = 844 ms
18:20:19 : Block start at 465104452 (238 Gb)  = 1360 ms
18:20:20 : Block start at 465120836 (238 Gb)  = 1703 ms
18:20:21 : Block start at 465137220 (238 Gb)  = 657 ms
18:20:22 : Block start at 465317444 (238 Gb)  = 829 ms
18:20:23 : Block start at 465333828 (238 Gb)  = 969 ms
18:20:26 : Block start at 465956420 (239 Gb)  = 594 ms
18:20:27 : Block start at 465972804 (239 Gb)  = 672 ms
18:20:29 : Block start at 466366020 (239 Gb)  = 625 ms
18:20:30 : Block start at 466382404 (239 Gb)  = 672 ms
18:20:35 : Block start at 466562628 (239 Gb)  = 1828 ms
18:20:37 : Block start at 466579012 (239 Gb)  = 1891 ms
18:20:38 : Block start at 466595396 (239 Gb)  = 1750 ms
18:20:40 : Block start at 466611780 (239 Gb)  = 1265 ms
18:20:41 : Block start at 466628164 (239 Gb)  = 1313 ms
18:20:42 : Block start at 466644548 (239 Gb)  = 688 ms
18:20:43 : Block start at 466660932 (239 Gb)  = 937 ms
18:20:43 : Block start at 466677316 (239 Gb)  = 719 ms
18:20:47 : Block start at 466890308 (239 Gb)  = 938 ms
18:20:48 : Block start at 466906692 (239 Gb)  = 1422 ms
18:20:49 : Block start at 466923076 (239 Gb)  = 1140 ms
18:20:52 : Block start at 467299908 (239 Gb)  = 781 ms
18:20:56 : Block start at 467725892 (239 Gb)  = 1079 ms
18:21:00 : Block start at 468086340 (240 Gb)  = 843 ms
18:21:00 : Block start at 468102724 (240 Gb)  = 625 ms
18:21:01 : Block start at 468119108 (240 Gb)  = 672 ms
18:21:06 : Block start at 469397060 (240 Gb)  = 1015 ms
18:21:08 : Block start at 469413444 (240 Gb)  = 1312 ms
18:21:09 : Block start at 469429828 (240 Gb)  = 1078 ms
18:21:10 : Block start at 469446212 (240 Gb)  = 688 ms
18:21:11 : Block start at 469462596 (240 Gb)  = 1437 ms
18:21:13 : Block start at 469659204 (240 Gb)  = 656 ms
18:21:14 : Block start at 469675588 (240 Gb)  = 1078 ms
18:21:15 : Block start at 469691972 (240 Gb)  = 1579 ms
18:21:17 : Block start at 469708356 (240 Gb)  = 1250 ms
18:21:17 : Block start at 469724740 (240 Gb)  = 625 ms
18:21:20 : Block start at 469904964 (241 Gb)  = 563 ms
18:21:27 : Block start at 470560324 (241 Gb)  = 1187 ms
18:21:38 : Block start at 471920196 (242 Gb)  = 781 ms
18:21:47 : Block start at 473493060 (242 Gb)  = 594 ms
18:21:52 : Block start at 474017348 (243 Gb)  = 578 ms
18:21:54 : Block start at 474263108 (243 Gb)  = 657 ms
18:21:55 : Block start at 474279492 (243 Gb)  = 781 ms
18:21:56 : Block start at 474295876 (243 Gb)  = 797 ms
18:21:57 : Block start at 474361412 (243 Gb)  = 1187 ms
18:21:58 : Block start at 474377796 (243 Gb)  = 562 ms
18:22:04 : Block start at 475098692 (243 Gb)  = 578 ms
18:22:05 : Block start at 475115076 (243 Gb)  = 672 ms
18:22:06 : Block start at 475164228 (243 Gb)  = 640 ms
18:22:08 : Block start at 475213380 (243 Gb)  = 1063 ms
18:22:09 : Block start at 475262532 (243 Gb)  = 906 ms
18:22:10 : Block start at 475311684 (243 Gb)  = 1141 ms
18:22:12 : Block start at 475328068 (243 Gb)  = 1297 ms
18:22:13 : Block start at 475377220 (243 Gb)  = 860 ms
18:22:14 : Block start at 475393604 (243 Gb)  = 969 ms
18:22:15 : Block start at 475426372 (243 Gb)  = 593 ms
18:22:16 : Block start at 475442756 (243 Gb)  = 1219 ms
18:22:17 : Block start at 475459140 (243 Gb)  = 906 ms
18:22:18 : Block start at 475491908 (243 Gb)  = 1016 ms
18:22:20 : Block start at 475557444 (243 Gb)  = 860 ms
18:22:23 : Block start at 475983428 (244 Gb)  = 1438 ms
18:22:25 : Block start at 475999812 (244 Gb)  = 1297 ms
18:22:27 : Block start at 476065348 (244 Gb)  = 1516 ms
18:22:28 : Block start at 476114500 (244 Gb)  = 594 ms
18:22:29 : Block start at 476130884 (244 Gb)  = 1484 ms
18:22:31 : Block start at 476409412 (244 Gb)  = 562 ms
18:22:32 : Block start at 476425796 (244 Gb)  = 891 ms
18:22:34 : Block start at 476442180 (244 Gb)  = 1953 ms
18:22:36 : Block start at 476458564 (244 Gb)  = 1828 ms
18:22:38 : Block start at 476474948 (244 Gb)  = 1844 ms
18:22:40 : Block start at 476491332 (244 Gb)  = 1937 ms
18:22:42 : Block start at 476507716 (244 Gb)  = 1969 ms
18:22:43 : Block start at 476524100 (244 Gb)  = 937 ms
18:22:43 : Block start at 476556868 (244 Gb)  = 578 ms
18:22:47 : Block start at 477277764 (244 Gb)  = 875 ms
18:22:58 : Block start at 479850052 (246 Gb)  = 594 ms
18:23:00 : Block start at 479948356 (246 Gb)  = 578 ms
18:23:01 : Block start at 479981124 (246 Gb)  = 563 ms
18:23:02 : Block start at 479997508 (246 Gb)  = 562 ms
18:23:07 : Block start at 481078852 (246 Gb)  = 781 ms
18:23:08 : Block start at 481111620 (246 Gb)  = 641 ms
18:23:10 : Block start at 481177156 (246 Gb)  = 782 ms
18:23:13 : Block start at 481635908 (247 Gb)  = 703 ms
18:23:14 : Block start at 481652292 (247 Gb)  = 610 ms
18:23:14 : Block start at 481668676 (247 Gb)  = 609 ms
18:23:22 : Block start at 483044932 (247 Gb)  = 625 ms
18:23:24 : Block start at 483094084 (247 Gb)  = 1031 ms
18:23:25 : Block start at 483110468 (247 Gb)  = 657 ms
18:23:26 : Block start at 483126852 (247 Gb)  = 1218 ms
18:23:26 : Block start at 483143236 (247 Gb)  = 594 ms
18:23:28 : Block start at 483159620 (247 Gb)  = 1344 ms
18:23:30 : Block start at 483700292 (248 Gb)  = 593 ms
18:23:35 : Block start at 484404804 (248 Gb)  = 734 ms
18:23:36 : Block start at 484453956 (248 Gb)  = 890 ms
18:23:37 : Block start at 484486724 (248 Gb)  = 890 ms
18:23:39 : Block start at 484503108 (248 Gb)  = 1313 ms
18:23:40 : Block start at 484519492 (248 Gb)  = 922 ms
18:23:41 : Block start at 484535876 (248 Gb)  = 1000 ms
18:23:42 : Block start at 484552260 (248 Gb)  = 922 ms
18:23:44 : Block start at 484568644 (248 Gb)  = 1844 ms
18:23:45 : Block start at 484585028 (248 Gb)  = 1390 ms
18:23:46 : Block start at 484601412 (248 Gb)  = 1266 ms
18:23:48 : Block start at 484617796 (248 Gb)  = 1719 ms
18:23:49 : Block start at 484634180 (248 Gb)  = 1516 ms
18:23:53 : Block start at 485027396 (248 Gb)  = 656 ms
18:23:54 : Block start at 485043780 (248 Gb)  = 688 ms
18:23:55 : Block start at 485060164 (248 Gb)  = 734 ms
18:23:56 : Block start at 485076548 (248 Gb)  = 734 ms
18:23:59 : Block start at 485207620 (248 Gb)  = 563 ms
18:24:09 : Block start at 487632452 (250 Gb)  = 781 ms
18:24:09 : Block start at 487648836 (250 Gb)  = 750 ms
18:24:10 : Block start at 487665220 (250 Gb)  = 594 ms
18:24:11 : Block start at 487681604 (250 Gb)  = 953 ms
18:24:12 : Block start at 487697988 (250 Gb)  = 906 ms
18:24:13 : Block start at 487714372 (250 Gb)  = 797 ms
18:24:14 : Block start at 487730756 (250 Gb)  = 1063 ms
18:24:15 : Block start at 487747140 (250 Gb)  = 1672 ms
18:24:16 : Block start at 487763524 (250 Gb)  = 875 ms
18:24:17 : Block start at 487779908 (250 Gb)  = 1047 ms
18:24:18 : Block start at 487796292 (250 Gb)  = 969 ms
18:24:19 : Block start at 487812676 (250 Gb)  = 718 ms
18:24:21 : Block start at 487894596 (250 Gb)  = 765 ms
18:24:26 : Block start at 488959556 (250 Gb)  = 922 ms
18:24:27 : Block start at 488975940 (250 Gb)  = 765 ms
18:24:30 : Block start at 489172548 (250 Gb)  = 781 ms
18:24:32 : Block start at 489680452 (251 Gb)  = 1172 ms
18:24:40 : Block start at 491122244 (251 Gb)  = 703 ms
18:24:43 : Block start at 491417156 (252 Gb)  = 656 ms
18:24:52 : Block start at 492187204 (252 Gb)  = 625 ms
18:24:54 : Block start at 492269124 (252 Gb)  = 1266 ms
18:25:12 : Block start at 497331780 (255 Gb)  = 1093 ms
18:25:15 : Block start at 497593924 (255 Gb)  = 594 ms
18:25:23 : Block start at 499068484 (256 Gb)  = 625 ms
18:25:26 : Block start at 499150404 (256 Gb)  = 1750 ms
18:25:28 : Block start at 499166788 (256 Gb)  = 2093 ms
18:25:29 : Block start at 499183172 (256 Gb)  = 1063 ms
18:25:31 : Block start at 499281476 (256 Gb)  = 1187 ms
18:25:33 : Block start at 499297860 (256 Gb)  = 2032 ms
18:25:34 : Block start at 499314244 (256 Gb)  = 812 ms
18:25:36 : Block start at 499428932 (256 Gb)  = 1156 ms
18:25:37 : Block start at 499461700 (256 Gb)  = 766 ms
18:25:39 : Block start at 499625540 (256 Gb)  = 579 ms
18:25:41 : Block start at 499707460 (256 Gb)  = 1531 ms
18:25:42 : Block start at 499723844 (256 Gb)  = 1375 ms
18:25:45 : Block start at 500313668 (256 Gb)  = 890 ms
18:25:46 : Block start at 500379204 (256 Gb)  = 703 ms
18:25:47 : Block start at 500395588 (256 Gb)  = 1219 ms
18:25:49 : Block start at 500411972 (256 Gb)  = 1563 ms
18:25:51 : Block start at 500444740 (256 Gb)  = 1312 ms
18:25:53 : Block start at 500461124 (256 Gb)  = 1969 ms
18:25:53 : Block start at 500477508 (256 Gb)  = 797 ms
18:25:55 : Block start at 500543044 (256 Gb)  = 1515 ms
18:25:57 : Block start at 500559428 (256 Gb)  = 2047 ms
18:25:59 : Block start at 500575812 (256 Gb)  = 1578 ms
18:26:00 : Block start at 500657732 (256 Gb)  = 813 ms
18:26:02 : Block start at 500674116 (256 Gb)  = 1656 ms
18:26:03 : Block start at 500690500 (256 Gb)  = 1453 ms
18:26:04 : Block start at 500706884 (256 Gb)  = 938 ms
18:26:06 : Block start at 500805188 (256 Gb)  = 844 ms
18:26:07 : Block start at 500821572 (256 Gb)  = 875 ms
18:26:08 : Block start at 500837956 (256 Gb)  = 782 ms
18:26:10 : Block start at 500903492 (256 Gb)  = 1672 ms
18:26:11 : Block start at 500919876 (256 Gb)  = 1172 ms
18:26:12 : Block start at 500936260 (256 Gb)  = 922 ms
18:26:13 : Block start at 500952644 (256 Gb)  = 1125 ms
18:26:15 : Block start at 500969028 (256 Gb)  = 2188 ms
18:26:16 : Block start at 500985412 (257 Gb)  = 719 ms
18:26:17 : Block start at 501018180 (257 Gb)  = 813 ms
18:26:19 : Block start at 501034564 (257 Gb)  = 1719 ms
18:26:20 : Block start at 501050948 (257 Gb)  = 1360 ms
18:26:22 : Block start at 501067332 (257 Gb)  = 1625 ms
18:26:23 : Block start at 501083716 (257 Gb)  = 891 ms
18:26:23 : Block start at 501116484 (257 Gb)  = 719 ms
18:26:26 : Block start at 501313092 (257 Gb)  = 703 ms
18:26:27 : Block start at 501329476 (257 Gb)  = 859 ms
18:26:28 : Block start at 501345860 (257 Gb)  = 812 ms
18:26:28 : Block start at 501362244 (257 Gb)  = 782 ms
18:26:33 : Block start at 501886532 (257 Gb)  = 594 ms
18:26:41 : Block start at 502804036 (257 Gb)  = 1656 ms
18:26:43 : Block start at 502820420 (257 Gb)  = 1484 ms
18:26:45 : Block start at 502918724 (257 Gb)  = 672 ms
18:26:47 : Block start at 502935108 (258 Gb)  = 2078 ms
18:26:49 : Block start at 502951492 (258 Gb)  = 2000 ms
18:26:50 : Block start at 502967876 (258 Gb)  = 1516 ms
18:26:52 : Block start at 503131716 (258 Gb)  = 1235 ms
18:26:54 : Block start at 503148100 (258 Gb)  = 2078 ms
18:26:57 : Warning! Block start at 503164484 (258 Gb)  = 2218 ms
18:26:57 : Block start at 503180868 (258 Gb)  = 578 ms
18:26:59 : Block start at 503230020 (258 Gb)  = 1203 ms
18:27:00 : Block start at 503246404 (258 Gb)  = 1421 ms
18:27:03 : Block start at 503393860 (258 Gb)  = 1281 ms
18:27:04 : Block start at 503410244 (258 Gb)  = 609 ms
18:27:10 : Block start at 504688196 (258 Gb)  = 625 ms
18:27:11 : Block start at 504704580 (258 Gb)  = 1140 ms
18:27:15 : Block start at 504917572 (259 Gb)  = 1297 ms
18:27:22 : Block start at 505507396 (259 Gb)  = 1015 ms
18:27:22 : Block start at 505523780 (259 Gb)  = 594 ms
18:27:26 : Block start at 506064452 (259 Gb)  = 1406 ms
18:27:28 : Block start at 506080836 (259 Gb)  = 1843 ms
18:27:30 : Block start at 506097220 (259 Gb)  = 1860 ms
18:27:31 : Block start at 506113604 (259 Gb)  = 1328 ms
18:27:39 : Block start at 507473476 (260 Gb)  = 641 ms
18:27:46 : Block start at 508440132 (260 Gb)  = 1453 ms
18:27:47 : Block start at 508456516 (260 Gb)  = 1500 ms
18:27:49 : Block start at 508472900 (260 Gb)  = 1562 ms
18:27:53 : Block start at 509128260 (261 Gb)  = 907 ms
18:27:54 : Block start at 509144644 (261 Gb)  = 1468 ms
18:28:02 : Block start at 510193220 (261 Gb)  = 641 ms
18:28:02 : Block start at 510258756 (261 Gb)  = 562 ms
18:28:04 : Block start at 510291524 (261 Gb)  = 969 ms
18:28:05 : Block start at 510307908 (261 Gb)  = 1125 ms
18:28:13 : Block start at 512044612 (262 Gb)  = 844 ms
18:28:14 : Block start at 512060996 (262 Gb)  = 921 ms
18:28:23 : Block start at 513666628 (263 Gb)  = 672 ms
18:28:24 : Block start at 513683012 (263 Gb)  = 828 ms
18:28:25 : Block start at 513699396 (263 Gb)  = 954 ms
18:28:26 : Block start at 513715780 (263 Gb)  = 969 ms
18:28:27 : Block start at 513732164 (263 Gb)  = 1234 ms
18:28:29 : Block start at 513748548 (263 Gb)  = 1344 ms
18:28:31 : Block start at 513764932 (263 Gb)  = 1688 ms
18:28:32 : Block start at 513781316 (263 Gb)  = 1672 ms
18:28:34 : Block start at 513797700 (263 Gb)  = 2109 ms
18:28:36 : Block start at 513814084 (263 Gb)  = 1563 ms
18:28:38 : Block start at 513830468 (263 Gb)  = 2031 ms
18:28:39 : Block start at 513846852 (263 Gb)  = 1297 ms
18:28:40 : Block start at 513863236 (263 Gb)  = 1125 ms
18:29:13 : Surface scan paused

